4.000000 0.0000000 0.0000000 0.0000000 0.0000000 0.0000000 0.0000000 1.0000000
24.000000 -0.0132893 0.0012132 -0.0036237 0.0035784 0.0047285 0.0077309 0.9999526
39.000000 -0.0256385 0.0025807 0.0015761 -0.0060953 -0.0046255 0.0068999 0.9999469
64.000000 -0.0627968 0.0028045 0.0096832 0.0156283 0.0022190 0.0088159 0.9998366
69.000000 -0.0691800 0.0026316 0.0059729 0.0176206 0.0197217 0.0079212 0.9996188
96.000000 -0.1308714 -0.0012317 0.0043122 0.0117730 0.0337332 0.0278996 0.9989720
136.000000 -0.2066370 -0.0037476 0.0151122 0.0082455 0.1011633 0.0577123 0.9931602
142.000000 -0.2258344 -0.0076816 0.0134332 0.0027400 0.1198990 0.0628634 0.9907901
145.000000 -0.2340337 -0.0083513 0.0146899 0.0030542 0.1169578 0.0648955 0.9910097
199.000000 -0.3578484 -0.0172919 0.0525844 -0.0314194 0.1492109 0.0645681 0.9861947
204.000000 -0.3682833 -0.0177556 0.0559618 -0.0318440 0.1521892 0.0601044 0.9860080
208.000000 -0.3765542 -0.0171661 0.0604767 -0.0318556 0.1527835 0.0503949 0.9864597
275.000000 -0.5099995 -0.0378078 0.1386520 -0.0183993 0.2158901 0.0758729 0.9732915
280.000000 -0.5187224 -0.0370979 0.1387231 -0.0192512 0.2316281 0.0808853 0.9692448
288.000000 -0.5361238 -0.0417205 0.1410598 -0.0282554 0.2580321 0.0992236 0.9606122
292.000000 -0.5448238 -0.0431410 0.1452297 -0.0382347 0.2626463 0.0926744 0.9596700
303.000000 -0.5558080 -0.0445625 0.1619939 -0.0329541 0.2507879 0.0902553 0.9632618
310.000000 -0.5625756 -0.0460570 0.1691975 -0.0323205 0.2628424 0.1001612 0.9590813
335.000000 -0.5890194 -0.0501022 0.1831053 -0.0507697 0.2638429 0.0878077 0.9592180
342.000000 -0.5914420 -0.0508916 0.1819568 -0.0489617 0.2679642 0.0759394 0.9591826
